{
  "package": {
    "scripts": {
      "start": "react-scripts start",
      "build": "node ./update-build.js && react-scripts build",
      "build:3000": "node ./update-build.js && env-cmd -f .env.3000 npm run build",
      "lint": "eslint --fix \"src/**/*.{ts,tsx}\"",
      "test": "react-scripts test",
      "eject": "react-scripts eject",
      "plop": "plop",
      "cypress:open": "NODE_ENV=development BABEL_ENV=development cypress open"
    },
    "dependencies": {
      "@emotion/core": "^10.0.35",
      "@reach/router": "^1.3.4",
      "@testing-library/jest-dom": "^5.11.4",
      "@testing-library/react": "^11.0.4",
      "antd": "^4.16.13",
      "axios": "^0.24.0",
      "connected-react-router": "^6.9.1",
      "date-fns": "^2.25.0",
      "emotion": "^10.0.27",
      "env-cmd": "^10.1.0",
      "history": "^4.10.1",
      "i18next": "^21.4.2",
      "lodash": "^4.17.20",
      "moment": "^2.29.1",
      "node-sass": "^4.14.1",
      "polished": "^3.6.7",
      "preval.macro": "^5.0.0",
      "prop-types": "^15.7.2",
      "react": "17.0.0",
      "react-app-polyfill": "^1.0.6",
      "react-dom": "17.0.0",
      "react-i18next": "^11.14.1",
      "react-redux": "^7.2.1",
      "react-router": "^5.2.0",
      "react-router-dom": "^5.2.0",
      "redux": "^4.0.5",
      "redux-devtools-extension": "^2.13.8",
      "redux-thunk": "^2.3.0",
      "typesafe-actions": "^5.1.0",
      "yarn": "^1.22.5"
    },
    "devDependencies": {
      "@babel/core": "^7.11.6",
      "@types/history": "^4.7.8",
      "@types/jest": "^26.0.14",
      "@types/lodash": "^4.14.161",
      "@types/moment": "^2.13.0",
      "@types/node": "^14.11.1",
      "@types/preval.macro": "^3.0.0",
      "@types/react": "^17.0.34",
      "@types/react-dom": "^16.9.8",
      "@types/react-google-recaptcha": "^2.1.0",
      "@types/react-lottie": "^1.2.5",
      "@types/react-redux": "^7.1.9",
      "@types/react-router-dom": "^5.1.5",
      "@typescript-eslint/eslint-plugin": "^4.1.1",
      "@typescript-eslint/parser": "^4.1.1",
      "awesome-typescript-loader": "^5.2.1",
      "babel-loader": "^8.1.0",
      "css-loader": "^4.3.0",
      "cypress": "^5.3.0",
      "eslint-config-airbnb": "^18.2.0",
      "eslint-config-blvd": "^1.0.2",
      "eslint-config-google": "^0.14.0",
      "eslint-config-prettier": "^6.11.0",
      "eslint-plugin-import": "^2.22.0",
      "eslint-plugin-jest": "^24.0.2",
      "eslint-plugin-jsx-a11y": "^6.3.1",
      "eslint-plugin-prettier": "^3.1.4",
      "eslint-plugin-react": "^7.20.6",
      "eslint-plugin-react-hooks": "^4.1.2",
      "husky": "^7.0.4",
      "plop": "^2.7.4",
      "prettier": "^2.1.2",
      "react-docgen-typescript-loader": "^3.7.2",
      "react-scripts": "^3.4.3",
      "sass-loader": "^10.0.2",
      "style-loader": "^1.2.1",
      "typescript": "^4.4.4"
    }
  }
}